[
{
  "companyId": 1,
  "contractId": 1,
  "createdDate": "2017-11-21T06:51:48.469Z",
  "currentStatus": "REQUESTED",
  "description": "demande Ajout equipement",
  "hostsToAdds": [
    {
      "ipAddress": "10.0.0.1",
      "label": "Host 2",
      "siteId": "1",
      "type": "ROUTER",
      "dateIntegration": "2017-12-28T21:16:12.272Z",
      "codeSnmp": "fdsdsfsdf"
   },
    {
      "ipAddress": "10.0.0.2",
      "label": "Host 2",
      "siteId": "1",
      "type": "ROUTER"
    }
  ],
  "type": "ADD"
},

{
  "companyId": 1,
  "contractId": 1,
  "createdDate": "2017-11-25T17:05:51.189Z",
  "currentStatus": "REQUESTED",
  "description": "demande Supp equipement 2",
  "hostsToAdds": [
    {
      "ipAddress": "10.2.2.1",
      "label": "Host 1",
      "siteId": "2",
      "type": "ROUTER",
      "zabbixId": "1"
    }
  ],
  "type": "UPDATE"
}
]