id;firtsname;lastname;email;mobile_phone;fixed_phone;company_id
1;Abdoulaye;NDOUR;abdoulaye.ndour@lonase.sn;773452167;NULL;1
2;Bécaye;TOUNKALA;becaye.tounkala@lonase.sn;777622948;NULL;1
3;CISS;Aliou;A.ciss@bicis.sn;779276271;NULL;3
4;DAFF;Abdoul;Abdoul.daff@wari.sn;784343871;NULL;2
5;Bocar;KANE;bkane@kaylene-group.com;777777777;NULL;4

