{
    "fluentMethods": true,
    "relationships": [
        {
            "relationshipType": "many-to-one",
            "relationshipName": "facture",
            "otherEntityName": "facture",
            "otherEntityField": "id"
        }
    ],
    "fields": [],
    "changelogDate": "20171114002227",
    "entityTableName": "company",
    "dto": "no",
    "pagination": "no",
    "service": "no",
    "jpaMetamodelFiltering": false
}