{
    "fluentMethods": true,
    "relationships": [
        {
            "relationshipType": "one-to-one",
            "relationshipName": "admin",
            "otherEntityName": "user",
            "otherEntityField": "id",
            "ownerSide": true,
            "otherEntityRelationshipName": "demandStory"
        },
        {
            "relationshipType": "many-to-one",
            "relationshipName": "demand",
            "otherEntityName": "demand",
            "otherEntityField": "id"
        }
    ],
    "fields": [
        {
            "fieldName": "createdDate",
            "fieldType": "Instant"
        },
        {
            "fieldName": "status",
            "fieldType": "DemandStatus",
            "fieldValues": "REQUESTED,ACCEPTED,REJECTED,DONE,INCOMPLETE"
        }
    ],
    "changelogDate": "20171114002234",
    "entityTableName": "demand_story",
    "dto": "mapstruct",
    "pagination": "pagination",
    "service": "no",
    "jpaMetamodelFiltering": false
}