{
    "fluentMethods": true,
    "relationships": [],
    "fields": [
        {
            "fieldName": "nomComplet",
            "fieldType": "String"
        },
        {
            "fieldName": "classe",
            "fieldType": "String"
        },
        {
            "fieldName": "specialite",
            "fieldType": "String"
        }
    ],
    "changelogDate": "20180321103508",
    "entityTableName": "etudiant",
    "dto": "mapstruct",
    "pagination": "no",
    "service": "no",
    "jpaMetamodelFiltering": false
}