{
    "fluentMethods": true,
    "relationships": [
        {
            "relationshipName": "company",
            "otherEntityName": "company",
            "relationshipType": "many-to-one",
            "otherEntityField": "id"
        }
    ],
    "fields": [
        {
            "fieldName": "zabbixProxyId",
            "fieldType": "String"
        },
        {
            "fieldName": "label",
            "fieldType": "String"
        },
        {
            "fieldName": "address",
            "fieldType": "String"
        },
        {
            "fieldName": "latitude",
            "fieldType": "String"
        },
        {
            "fieldName": "longitude",
            "fieldType": "String"
        }
    ],
    "changelogDate": "20171114002232",
    "entityTableName": "site",
    "dto": "mapstruct",
    "pagination": "pagination",
    "service": "no",
    "jpaMetamodelFiltering": false
}